24133064_NguyenThiKieuTrang_BTSV_LAB4
…
4. Quốc gia nào thiếu tuổi thọ nhiều nhất?

lifeExp_long%>%
  group_by(country)%>%
  summarise(Tuoi_tho_thieu=sum(is.na(lifeExp)))%>%
  arrange(desc(Tuoi_tho_thieu))

## # A tibble: 195 × 2
##    country             Tuoi_tho_thieu
##    <chr>                        <int>
##  1 Andorra                        231
##  2 Dominica                       231
##  3 Marshall Islands               231
##  4 Monaco                         231
##  5 Nauru                          231
##  6 Palau                          231
##  7 San Marino                     231
##  8 St. Kitts and Nevis            231
##  9 Tuvalu                         231
## 10 Afghanistan                      0
## # ℹ 185 more rows
…
4. Có GDP bình quân đầu người bằng 0 hoặc âm không?

có khả năng bằng 0 với những khu vực không có người sinh sống hoặc
xấp xỉ 0. Không thể âm được.

5. Có quốc gia nào thiếu GDP nhiều năm không?

gdpPercap_long %>%
  group_by(country)%>%
  summarise(So_nam_thieu_GDP=sum(is.na(gdpPercap)))%>%
  arrange(desc(So_nam_thieu_GDP))

## # A tibble: 195 × 2
##    country             So_nam_thieu_GDP
##    <chr>                          <int>
##  1 Afghanistan                        0
##  2 Albania                            0
##  3 Algeria                            0
##  4 Andorra                            0
##  5 Angola                             0
##  6 Antigua and Barbuda                0
##  7 Argentina                          0
##  8 Armenia                            0
##  9 Australia                          0
## 10 Austria                            0
## # ℹ 185 more rows
…
Nếu chỉ join theo country, R sẽ bị trùng lặp thông tin và tự động
nhân bản các dòng lên thành một “ma trận” sai lệch hoàn toàn. Do đó, bắt
buộc phải join theo cả country và year để định vị chính xác: ráp đúng dữ
liệu của cùng một nước và cùng một năm vào với nhau.

4. Sau khi join, có dòng nào thiếu continent không?

gap %>% 
  filter(is.na(continent)) %>% 
  distinct(country)

## # A tibble: 60 × 1
##    country             
##    <chr>               
##  1 Andorra             
##  2 United Arab Emirates
##  3 Armenia             
##  4 Antigua and Barbuda 
##  5 Azerbaijan          
##  6 Bahamas             
##  7 Belarus             
##  8 Belize              
##  9 Barbados            
## 10 Brunei              
## # ℹ 50 more rows
…
