24133064_NguyenThiKieuTrang_LAB4_EDA2
…
Kim cương có cut tốt hơn không phải lúc nào cũng đắt hơn. Giá còn phụ
thuộc vào nhiều yếu tố khác như carat, color và clarity. Một số nhóm cut
thấp hơn vẫn có giá cao nếu viên kim cương có trọng lượng lớn.

3. Có outlier nào trong kích thước kim cương không?

outlier_size

## # A tibble: 22 × 10
##    carat cut       color clarity depth table price     x     y     z
##    <dbl> <ord>     <ord> <ord>   <dbl> <dbl> <int> <dbl> <dbl> <dbl>
##  1  1    Premium   G     SI2      59.1    59  3142  6.55  6.48  0   
##  2  1.01 Premium   H     I1       58.1    59  3167  6.66  6.6   0   
##  3  1.1  Premium   G     SI2      63      59  3696  6.5   6.47  0   
##  4  1.01 Premium   F     SI2      59.2    58  3837  6.5   6.47  0   
##  5  1.5  Good      G     I1       64      61  4731  7.15  7.04  0   
##  6  1.07 Ideal     F     SI2      61.6    56  4954  0     6.62  0   
##  7  1    Very Good H     VS2      63.3    53  5139  0     0     0   
##  8  1.15 Ideal     G     VS2      59.2    56  5564  6.88  6.83  0   
##  9  1.14 Fair      G     VS1      57.5    67  6381  0     0     0   
## 10  2    Premium   H     SI2      58.9    57 12210  8.09 58.9   8.06
## # ℹ 12 more rows
…
starwars %>%
  count(gender, sort = TRUE)

## # A tibble: 3 × 2
##   gender        n
##   <chr>     <int>
## 1 masculine    66
## 2 feminine     17
## 3 <NA>          4

starwars %>%
  count(species, sort = TRUE)

## # A tibble: 38 × 2
##    species      n
##    <chr>    <int>
##  1 Human       35
##  2 Droid        6
##  3 <NA>         4
##  4 Gungan       3
##  5 Kaminoan     2
##  6 Mirialan     2
##  7 Twi'lek      2
##  8 Wookiee      2
##  9 Zabrak       2
## 10 Aleena       1
## # ℹ 28 more rows
…
